[
    {
        "name": "lab1",
        "grade": "5",
        "status": "done"
    },
    {
        "name": "lab2",
        "grade": "0",
        "status": "fix"
    },
    {
        "name": "lab3",
        "grade": "4",
        "status": "done"
    },
    {
        "name": "lab4",
        "grade": "0",
        "status": "doing"
    },
    {
        "name": "lab5",
        "grade": "0",
        "status": "doing"
    }
]